time,div,predwin,orderp,orderd,orderq,seasonalp,seaonald,seasonalq,m,mape,mae,rmse
FIN_DAY,A,144,2,1,1,2,0,3,7,810.6672022604331,959088.1792988868,1355304.9407232876
FIN_DAY,A,216,3,1,2,2,0,3,7,746.3138014551396,947880.8451561207,1312323.2520658502
FIN_DAY,A,24,3,1,2,2,0,3,7,178.72452292530997,809197.954129012,1232207.1682453516
FIN_DAY,A,72,3,1,2,2,0,3,7,461.2647642590387,1092580.0962382986,1570505.6716106983
FIN_DAY,ALL,144,3,1,2,2,0,3,7,327.6121555860853,2383388.234363464,3384830.6795855137
FIN_DAY,ALL,216,3,1,3,2,0,2,7,303.07802265724524,2316159.9539758703,3207998.801219508
FIN_DAY,ALL,24,3,1,2,2,0,3,7,312.78793741147246,2352531.5732945316,3371125.3072951897
FIN_DAY,ALL,72,4,1,3,3,0,0,7,341.77756950052765,2699057.928804653,3703025.898061957
FIN_DAY,B,144,2,1,1,2,0,3,7,297.2280818840097,704617.3229171371,873135.8944245811
FIN_DAY,B,216,2,1,1,2,0,3,7,279.8174454667856,720324.1333221962,897076.6566204792
FIN_DAY,B,24,2,1,1,2,0,3,7,156.00048799867142,604955.2231505112,736506.4741467872
FIN_DAY,B,72,2,1,1,2,0,3,7,332.7879927490115,800640.0677295654,968658.6674697755
FIN_DAY,C,144,2,1,3,4,0,1,7,603.9388418915585,545817.3086246869,723667.525735203
FIN_DAY,C,216,2,1,3,3,0,0,7,586.8357941546153,510024.4239762763,683414.326896319
FIN_DAY,C,24,2,1,3,4,0,1,7,128.4684054636365,435134.36656076607,599124.4265341798
FIN_DAY,C,72,2,1,3,3,0,0,7,500.24344685900496,466985.1884734373,599337.5241983529
FIN_DAY,D,144,2,1,3,2,0,3,7,582.7329921370595,456785.4841353057,600706.0210715822
FIN_DAY,D,216,2,1,2,2,0,4,7,461.2907732388602,440232.8864341141,570582.6511593906
FIN_DAY,D,24,2,1,3,2,0,3,7,132.49425329385886,442127.3534363092,594036.7964647784
FIN_DAY,D,72,2,1,3,2,0,3,7,662.8751106449683,489449.80641107884,631265.754026719
FIN_DAY,E,144,0,0,1,3,1,1,7,562.4286422499465,994341.2009380766,1398682.323298561
FIN_DAY,E,216,0,0,0,0,0,1,7,592.852603389895,974554.1585069845,1300520.0234159175
FIN_DAY,E,24,0,0,0,0,0,1,7,1450.746143155228,1031645.0507745576,1408406.5817275364
FIN_DAY,E,72,0,0,0,0,0,1,7,716.6492048292507,1000089.8035479697,1343155.6857532877
FIN_MONTH,A,1,1,1,0,1,0,0,12,13.550872213722057,5011250.469341561,5011250.469341561
FIN_MONTH,A,2,1,1,0,1,0,0,12,10.849028957616328,4060472.766815126,4599428.742982137
FIN_MONTH,A,3,1,1,0,1,0,0,12,7.7423690532405125,3267306.9490075535,3955371.7105177958
FIN_MONTH,A,4,1,1,0,1,0,0,12,24.546834757758212,8986918.934318487,9731501.519155372
FIN_MONTH,A,5,1,1,0,1,0,0,12,20.861489995179085,7673692.082610053,9108126.41554651
FIN_MONTH,A,6,1,1,0,1,0,0,12,22.177784683566202,8332862.409033841,9863781.114013676
FIN_MONTH,A,9,1,1,0,1,0,0,12,13.345205489416756,5024217.172907238,7038631.551758109
FIN_MONTH,ALL,1,0,1,0,0,0,0,12,14.571341080965944,25519439.632750034,25519439.632750034
FIN_MONTH,ALL,2,0,1,0,0,0,0,12,10.047830739687956,15190071.714999959,19617901.97883494
FIN_MONTH,ALL,3,0,1,0,0,0,0,12,8.134589872738664,13578759.751052627,13667670.28129942
FIN_MONTH,ALL,4,0,1,0,0,0,0,12,6.384628205626193,10071866.92135135,11879933.554305727
FIN_MONTH,ALL,5,0,1,0,0,0,0,12,5.232022803266859,8340574.270233339,10227676.714845799
FIN_MONTH,ALL,6,0,1,0,0,0,0,12,7.397727900291824,11655224.987933308,14851098.484002555
FIN_MONTH,ALL,9,0,1,0,0,0,0,12,5.895340164184006,9363760.837763898,12986484.398926493
FIN_MONTH,B,1,0,1,0,0,0,0,12,13.697546879979944,5139939.257074993,5139939.257074993
FIN_MONTH,B,2,0,1,0,0,0,0,12,7.368202762649069,2535427.576141024,2545652.783585579
FIN_MONTH,B,3,0,1,0,0,0,0,12,5.122887104584029,1776791.4459473677,2078152.8023173336
FIN_MONTH,B,4,0,1,0,0,0,0,12,6.370158673529786,2277309.882040539,2696835.9837574107
FIN_MONTH,B,5,0,1,0,0,0,0,12,4.972578332208606,1665987.8945111171,1973257.8939805725
FIN_MONTH,B,6,0,1,0,0,0,0,12,6.956043098508603,2300286.1760666617,2699319.5871264683
FIN_MONTH,B,9,0,1,0,0,0,0,12,4.329725949964222,1448570.8764965306,1741606.6603969345
FIN_MONTH,C,1,0,1,1,0,0,0,12,11.121370472715743,3334147.3934166096,3334147.3934166096
FIN_MONTH,C,2,0,1,2,0,0,0,12,15.385877474418368,3495098.4747032337,4870679.841841862
FIN_MONTH,C,3,0,1,1,0,0,0,12,11.700963972879103,2845457.455208195,3700724.3184154183
FIN_MONTH,C,4,1,1,2,0,0,0,12,13.076827008681882,3125947.130448675,4320213.152348963
FIN_MONTH,C,5,1,1,2,0,0,0,12,10.8489842719833,2678037.014415397,3534561.5985396192
FIN_MONTH,C,6,1,1,2,0,0,0,12,9.360388274723881,2340341.860088343,3163893.3675292637
FIN_MONTH,C,9,0,1,1,0,0,0,12,20.762547956393757,5439291.041068496,6443064.7572407285
FIN_MONTH,D,1,1,1,0,0,0,0,12,24.64716600271612,7674485.353975195,7674485.353975195
FIN_MONTH,D,2,1,1,0,1,0,0,12,21.175816933101494,5549869.568754688,5571710.0901908735
FIN_MONTH,D,3,1,1,0,1,0,0,12,16.107981189518174,4072607.438445183,4474153.255762757
FIN_MONTH,D,4,1,1,0,1,0,0,12,12.092624312250303,3098782.4743460603,3815448.7854990023
FIN_MONTH,D,5,1,1,0,1,0,0,12,10.672924079715585,2679903.055131688,3495095.9608284933
FIN_MONTH,D,6,1,1,0,1,0,0,12,9.724402122427318,2422746.8975176136,3278495.7425648947
FIN_MONTH,D,9,1,1,0,0,0,0,12,7.455520109122221,1892737.3226586783,2392219.7651939415
FIN_MONTH,E,1,0,1,0,0,0,0,12,15.946463927257648,6300747.579875011,6300747.579875011
FIN_MONTH,E,2,0,0,0,0,0,0,12,10.576483694113637,3558421.533100011,4721178.626211258
FIN_MONTH,E,3,0,0,0,0,0,0,12,8.460558272985947,2966321.197179485,3976388.062971473
FIN_MONTH,E,4,0,0,0,0,0,0,12,6.475782539150927,2276209.3190789567,3447040.025791329
FIN_MONTH,E,5,0,0,0,0,0,0,12,8.342428634437022,2922997.1161621725,3911095.4418958593
FIN_MONTH,E,6,0,0,0,0,0,0,12,13.173152526949803,4317309.979629633,5660009.772106209
FIN_MONTH,E,9,0,0,0,0,0,0,12,11.184224455418004,3771217.7394276047,4974728.504504558
FIN_QUARTER,A,1,1,1,0,0,0,0,4,4.054139839380617,4890674.807404324,4890674.807404324
FIN_QUARTER,A,2,1,1,0,0,0,0,4,13.721389481865188,16783395.4462184,17200083.87115005
FIN_QUARTER,A,3,1,1,0,0,0,0,4,7.709486669702041,9514158.714059448,10953445.78548704
FIN_QUARTER,ALL,1,0,1,0,0,0,0,4,0.4530655001449998,2264485.0129998922,2264485.0129998922
FIN_QUARTER,ALL,2,0,1,0,0,0,0,4,5.7847001360439005,28641991.24690917,28642051.45289326
FIN_QUARTER,ALL,3,0,1,0,0,0,0,4,4.07196614586939,20171335.06639999,24308644.567699503
FIN_QUARTER,B,1,0,1,0,0,0,0,4,2.262808960885142,2361812.6653333604,2361812.6653333604
FIN_QUARTER,B,2,0,1,0,0,0,0,4,2.730154259314609,2774516.059000008,2956997.3023660914
FIN_QUARTER,B,3,0,1,0,0,0,0,4,2.7495273543305334,2801253.4302666634,3217411.917684172
FIN_QUARTER,C,1,0,1,0,0,0,0,4,3.4268008441963067,2829059.5100833327,2829059.5100833327
FIN_QUARTER,C,2,1,1,0,1,0,0,4,6.276530104751619,5200016.732393846,5506191.979965836
FIN_QUARTER,C,3,0,1,0,0,0,0,4,3.985331965036238,3304302.268866693,4019669.3400450284
FIN_QUARTER,D,1,0,1,0,1,0,0,4,2.9159686530159643,2263755.4470236897,2263755.4470236897
FIN_QUARTER,D,2,0,1,0,1,0,0,4,1.507332911760775,1170027.1029873341,1619738.281269604
FIN_QUARTER,D,3,0,1,0,1,0,0,4,7.998823404063233,6107581.9730483545,6145288.100003315
FIN_QUARTER,E,1,0,1,0,0,0,0,4,10.169084993697568,11655274.038333341,11655274.038333341
FIN_QUARTER,E,2,0,0,0,0,0,0,4,10.73790951260162,11501136.003583364,12572537.215828184
FIN_QUARTER,E,3,0,0,0,0,0,0,4,9.633774715429295,10480408.924363604,11502416.250564354
FIN_WEEK,A,12,1,0,0,1,1,0,52,19.400617452498015,1787611.1560397719,2314683.5731446096
FIN_WEEK,A,24,0,0,0,1,1,0,52,30.907456271557265,2203861.0962155224,3879610.977794929
FIN_WEEK,A,36,0,0,0,0,1,0,52,23.956283535955,1855425.5840555553,3229310.2191877007
FIN_WEEK,A,4,0,0,1,0,1,0,52,16.3985861142352,1395936.4690252151,1738203.4434531603
FIN_WEEK,A,8,0,0,1,0,1,0,52,14.696908988725177,1256886.9485318516,1859195.4493338624
FIN_WEEK,ALL,12,2,1,1,1,1,0,52,43.29635660823337,17348893.273493953,18891661.050886076
FIN_WEEK,ALL,24,2,1,1,1,1,0,52,51.03916656316624,7605998.2474288745,10936943.68999097
FIN_WEEK,ALL,36,2,1,1,1,1,0,52,37.15489903433438,5811997.023973588,9169540.408751754
FIN_WEEK,ALL,4,0,0,0,0,1,0,52,13.44865516369287,5371468.101343753,5996357.579366797
FIN_WEEK,ALL,8,2,1,1,1,1,0,52,18.045720373053843,7429563.561804138,9307209.161996806
FIN_WEEK,B,12,0,1,1,2,1,0,52,41.692441042261024,3645629.366312142,4146501.55571201
FIN_WEEK,B,24,0,0,0,0,1,0,52,32.62203026334922,1888694.7669290125,2428850.341639175
FIN_WEEK,B,36,2,1,1,1,1,0,52,27.983129802775785,1600847.8244496996,2283151.2360030245
FIN_WEEK,B,4,3,1,2,2,1,0,52,22.89705751682844,2073593.81460843,2390462.908874566
FIN_WEEK,B,8,3,1,2,2,1,0,52,21.607483772879633,1951829.3020044784,2469748.2310260492
FIN_WEEK,C,12,0,0,0,0,1,0,52,15.308356526840464,916648.4958555555,1150581.701658942
FIN_WEEK,C,24,0,0,0,0,1,0,52,38.029605562252414,906232.7805416668,1286851.4669381836
FIN_WEEK,C,36,0,0,0,0,1,0,52,29.922142052131285,873065.493513889,1214454.6983413696
FIN_WEEK,C,4,2,1,3,1,0,0,52,13.855741983710015,1034766.4073746474,1211679.5336143768
FIN_WEEK,C,8,0,0,0,0,1,0,52,20.048230308281912,1202405.6187217748,1371047.57565762
FIN_WEEK,D,12,1,0,0,1,1,0,52,44.8644950353726,1827488.9927625654,2261419.846114166
FIN_WEEK,D,24,0,0,0,0,1,0,52,63.9187720564674,1703802.1371496916,2128089.571468911
FIN_WEEK,D,36,0,0,0,0,1,0,52,47.42687801310532,1364762.500256944,1804130.9851562292
FIN_WEEK,D,4,1,0,0,1,1,0,52,24.82672300418149,1886470.6119165602,2213093.6021931735
FIN_WEEK,D,8,1,0,0,1,1,0,52,64.43880246025357,2414683.8075745315,2701919.671055726
FIN_WEEK,E,12,0,0,0,1,1,0,52,30.55015378188345,2807828.187649386,3356979.456186689
FIN_WEEK,E,24,0,0,0,1,1,0,52,52.786739305476914,2905157.4939456303,4104069.9495754535
FIN_WEEK,E,36,0,0,0,0,1,0,52,51.209972846525865,3218852.878913194,4409422.7857447285
FIN_WEEK,E,4,1,0,0,0,1,0,52,34.733884762041875,2825280.9843048323,2908072.793885823
FIN_WEEK,E,8,0,0,0,1,1,0,52,32.770979152527936,3169056.8701032456,3797545.198323505
