time,div,predwin,k,l,mape,mae,rmse
FIN_DAY,A,24,1,30,70.49361405285929,635300.5731449644,1021635.3301300857
FIN_DAY,A,48,5,29,81.14012245674405,577642.4941323748,897929.6054948252
FIN_DAY,A,72,3,199,159.18686172821918,763547.512833805,1332564.6857300375
FIN_DAY,A,144,5,201,204.05656656322105,764698.7030000958,1221002.0794088135
FIN_DAY,A,216,2,142,279.75771696861534,808776.9503939832,1178759.6658336911
FIN_DAY,B,24,3,206,43.89858180487565,421681.968126938,588060.3748630232
FIN_DAY,B,48,3,98,77.4975334340601,467548.08483346744,592506.6247819469
FIN_DAY,B,72,2,167,89.43355066142854,509180.40304063424,686099.9168297943
FIN_DAY,B,144,1,11,110.2604760295562,590784.5398003217,765259.4909030604
FIN_DAY,B,216,1,22,155.66406818477518,642448.0085831321,843229.0791257176
FIN_DAY,C,24,1,15,43.91610098798278,305213.352296769,385410.44513239065
FIN_DAY,C,48,11,27,75.16215023272878,350672.71903594444,485403.6224316725
FIN_WEEK,A,4,2,3,7.836137807282238,749974.1908431179,877956.2556520785
FIN_WEEK,A,8,1,7,8.8488564117088,905477.6577674886,1060897.975233331
FIN_WEEK,A,12,24,14,14.992949044657037,1454440.0826082707,1792129.6192366078
FIN_WEEK,A,24,1,51,31.879844010582904,2257416.6185128912,3716449.67922777
FIN_WEEK,A,36,4,26,22.79249182411584,1794189.6510137268,3170796.568560427
FIN_WEEK,B,4,3,8,8.898847329683203,987416.3641580632,1575441.127778766
FIN_WEEK,B,8,8,7,9.76146297000669,946105.9188735216,1432436.7603933986
FIN_WEEK,B,12,5,23,10.683400358293465,1017929.3806311688,1588868.933611128
FIN_WEEK,B,24,2,11,23.76686250203436,1316036.3239459132,1874067.668538632
FIN_WEEK,B,36,3,26,18.721992631741003,1098137.1547773406,1612256.6556205535
FIN_WEEK,C,4,9,3,6.687194087310508,503959.52929890365,633506.182669193
FIN_WEEK,C,8,6,11,10.673765893743894,646419.9215388017,855173.2483848934
FIN_WEEK,C,12,4,11,10.728874997791777,655232.6037459866,841456.630363184
FIN_WEEK,C,24,1,19,37.80245073468424,904762.4265113563,1246687.3191811733
FIN_WEEK,C,36,27,2,34.349607822637665,927737.6467480301,1466666.8687751421
FIN_WEEK,D,4,4,56,4.111446042826093,275173.58681868087,356008.103452169
FIN_WEEK,D,8,1,9,48.83996734275113,1305172.5052766,1747508.0424655254
FIN_WEEK,D,12,1,21,30.331841844538975,1022972.2458727472,1329404.324661236
FIN_WEEK,D,24,3,26,59.119814673951524,1250747.6423503698,1853369.3928105643
FIN_WEEK,D,36,2,19,48.978760152297404,1190666.505938356,1709783.5118302698
FIN_WEEK,E,4,5,20,5.231315432342517,417441.0941599037,469603.22033857135
FIN_WEEK,E,8,11,6,15.797946999788795,1516796.138160718,2084191.5463604017
FIN_WEEK,E,12,1,2,20.61386955676895,1791935.6209448744,2368144.337201698
FIN_WEEK,E,24,2,8,37.4459928795222,2138675.785644587,3211807.6067231647
FIN_WEEK,E,36,4,8,34.831793027903636,2064516.9097756792,3202225.2289409316
FIN_WEEK,ALL,4,4,3,3.5706541037930744,1464895.7298404183,1744459.7427817455
FIN_WEEK,ALL,8,4,6,12.090257793951231,4237857.249702478,5507713.0300665125
FIN_WEEK,ALL,12,4,21,14.011934854616317,5378707.486454439,6595246.137899409
FIN_WEEK,ALL,24,2,14,45.75016341934759,5527866.149773825,9037240.158887397
FIN_WEEK,ALL,36,1,27,33.537987271013655,4917181.287393783,8179263.178868534
FIN_MONTH,A,1,7,3,3.288401195200847,1216084.2322862744,1216084.2322862744
FIN_MONTH,A,2,1,3,4.751963845485447,1798925.1572162695,1806521.0749573996
FIN_MONTH,A,3,3,2,6.226445036456468,2532226.6140157827,2670326.449709275
FIN_MONTH,A,4,1,11,15.245342734406517,5546132.558160973,6232503.008090399
FIN_MONTH,A,5,1,10,14.300672638813861,5425967.197797558,5851841.765361402
FIN_MONTH,A,6,1,11,12.372326121322345,4608125.406427769,5395885.833396117
FIN_MONTH,A,9,1,9,9.513744500936701,3650985.375226806,4419811.898607089
FIN_MONTH,B,1,1,12,5.828033315263396,2186941.756150946,2186941.756150946
FIN_MONTH,B,2,1,9,5.502990305418236,1949897.4797742423,2029841.0469535105
FIN_MONTH,B,3,1,8,4.358489690596286,1550687.1007989172,1750695.2566005145
FIN_MONTH,B,4,1,7,2.9620332967548304,1073964.9329788797,1477181.0389803364
FIN_MONTH,B,5,1,7,2.9731542128077866,1051476.9810060442,1342335.5635144021
FIN_MONTH,B,6,2,11,3.360854513286557,1192883.4639641836,1505620.114215387
FIN_MONTH,B,9,5,10,3.280194460005992,1130249.9409557234,1403406.418496005
FIN_MONTH,C,1,3,12,4.272204089503319,1280791.6222291775,1280791.6222291775
FIN_MONTH,C,2,2,12,10.677978427226774,2557918.269215239,2919244.44601684
FIN_MONTH,C,3,1,10,8.270979451478912,2127814.258351039,2494413.0530980784
FIN_MONTH,C,4,1,10,6.24969119448913,1607002.3126868522,2161580.421877889
FIN_MONTH,C,5,1,5,7.89121793061043,1978942.0030064576,2471762.87556127
FIN_MONTH,C,6,2,5,6.856939820717085,1717706.3421379116,2340844.1028014673
FIN_MONTH,C,9,1,5,5.751910496382562,1470035.4344287585,2072786.3747442004
FIN_MONTH,D,1,2,11,12.500188509271817,3892233.0310009606,3892233.0310009606
FIN_MONTH,D,2,3,7,12.19168981962763,3677395.3745959345,4051795.4443886545
FIN_MONTH,D,3,3,7,8.819702506886673,2541520.335484424,3306965.469628912
FIN_MONTH,D,4,3,7,7.787044962024719,2128790.1876424802,2918669.558729664
FIN_MONTH,D,5,5,6,7.811613504781942,2077990.2910202823,2863184.9484429965
FIN_MONTH,D,6,6,6,6.6852081946298085,1780944.4276459068,2579716.2599383285
FIN_MONTH,D,9,1,7,6.165268136265438,1680428.502730651,2280713.3662103764
FIN_MONTH,E,1,3,3,0.1868924092067078,73844.70315035433,73844.70315035433
FIN_MONTH,E,2,2,12,1.5891574186315538,556292.7766085733,595473.707025241
FIN_MONTH,E,3,2,12,2.634128524055698,1017059.4448571391,1111745.0622004636
FIN_MONTH,E,4,3,11,2.6165686626889544,1043204.511306094,1299282.4022507898
FIN_MONTH,E,5,2,4,4.731189336361305,1717505.195922538,2122146.4824661342
FIN_MONTH,E,6,1,4,10.235456185865294,3272209.4335664804,4270838.290518886
FIN_MONTH,E,9,2,8,8.24829263510473,2760395.476898811,3742748.4030837235
FIN_MONTH,ALL,1,1,6,0.1957710863660032,342862.6364996135,342862.6364996135
FIN_MONTH,ALL,2,1,12,1.0427107449351618,1725472.329468131,1817485.8953528483
FIN_MONTH,ALL,3,1,10,1.862902634819156,2900795.564193974,3850252.3139646836
FIN_MONTH,ALL,4,1,7,2.9160107280992076,4578196.553491846,5960369.27630813
FIN_MONTH,ALL,5,4,11,3.8745582932577003,6108853.672092873,7482366.689417316
FIN_MONTH,ALL,6,4,11,3.3136749308993787,5236592.702769722,6744732.380911424
FIN_MONTH,ALL,9,2,10,2.0569379057207806,3284144.065695008,4720856.4878565185
FIN_QUARTER,A,1,1,3,4.269226570522014,5150142.733789638,5150142.733789638
FIN_QUARTER,A,2,1,3,7.606482850013399,9319789.356111668,9397489.719010672
FIN_QUARTER,A,3,1,2,4.73575611946948,5963850.628670837,6230538.894627364
FIN_QUARTER,B,1,4,2,2.415228223613967,2520900.662321359,2520900.662321359
FIN_QUARTER,B,2,2,2,1.82629573581648,1874918.5063460842,1897674.1930289166
FIN_QUARTER,B,3,4,2,1.4240067484688446,1467010.7495557915,1722907.2180755748
FIN_QUARTER,C,1,3,3,0.8731004010884555,720804.3610530198,720804.3610530198
FIN_QUARTER,C,2,2,2,0.6962049155208045,577364.316166155,585320.8368385783
FIN_QUARTER,C,3,1,2,2.041085374735708,1703081.6105145414,1802803.7052584237
FIN_QUARTER,D,1,1,2,1.0629739943951773,825219.148829937,825219.148829937
FIN_QUARTER,D,2,1,2,4.529107599298896,3504398.9430717453,3506148.975287525
FIN_QUARTER,D,3,1,2,13.482030516854504,10322235.418997997,10388826.755408848
FIN_QUARTER,E,1,3,2,4.264570852709499,4887828.351815656,4887828.351815656
FIN_QUARTER,E,2,3,3,5.38995603184442,5729440.976337202,6708732.168967745
FIN_QUARTER,E,3,1,2,8.313237162788845,9008447.628932595,10253139.444506224
FIN_QUARTER,ALL,1,3,3,0.3410655727366786,1704693.6428954601,1704693.6428954601
FIN_QUARTER,ALL,2,1,3,1.2673764176247395,6223479.413785517,8305260.363853357
FIN_QUARTER,ALL,3,1,2,2.3014690099372745,11566429.061753511,13069590.181787422
FIN_DAY,C,72,3,196,136.6201377885183,448781.9790098779,574220.0166496915
FIN_DAY,C,144,4,154,319.1475225396524,491065.7542779369,668886.833819182
FIN_DAY,D,24,5,33,48.032134298225806,324698.25277740275,479150.72518721427
FIN_DAY,D,48,10,39,103.4170443760879,472172.1004584374,608639.577903096
FIN_DAY,D,72,7,19,163.1055700811388,448725.47998789535,594374.8468466648
FIN_DAY,D,144,21,20,142.7514801007924,456777.6983636918,594641.101900742
FIN_DAY,E,24,4,105,200.02710053342824,745017.3456712826,1084633.2298688076
FIN_DAY,E,48,7,87,105.49388748128918,793370.8161598601,1123858.4846851444
FIN_DAY,E,72,3,116,178.7404139734205,848449.1777717547,1166462.586222774
FIN_DAY,E,144,2,239,154.87334939253537,885704.9943046856,1321613.4903284565
FIN_DAY,ALL,24,2,24,41.55221373322044,1656057.90441548,2624876.614216517
FIN_DAY,ALL,48,4,27,54.75168026342207,1837642.0530125685,2761594.189242146
FIN_DAY,ALL,72,1,285,64.42305300533623,1954003.9810002525,2899328.089801571
FIN_DAY,ALL,144,1,5,238.87567005100453,2284726.880998877,3258186.3963315883
FIN_DAY,C,216,2,142,0,0,0
FIN_DAY,D,216,2,142,0,0,0
FIN_DAY,E,216,2,142,0,0,0
FIN_DAY,ALL,216,5,48,181.42557403619318,2177348.183699941,3066762.816194645
