['Sheet1']
Keys:  ['FIN_YEAR', 'FIN_QUARTER', 'FIN_MONTH', 'FIN_WEEK', 'FIN_DAY', 'A', 'B', 'C', 'D', 'E']
Applying structuralbreak
Predict with: data: (172,), timesteps: 12, k: 2, l: 10
knn MAPE:  92.81714287570509
knn MAE:  16228787.963330882
knn RMSE:  18755115.162196886
knn MAEP:  41.37542264683423
knn RMSEP:  47.816313724680306
fitted arima: (2, 1, 0)x(1, 1, 0, 52)
sarima MAPE:  140.4891525447721
sarima MAE:  20791871.21103184
sarima RMSE:  22051872.973301277
sarima MAEP:  53.00903930218216
sarima RMSEP:  56.221423712370346
Predict with: data: (160,), timesteps: 24, k: 5, l: 20
knn MAPE:  15.445305792811666
knn MAE:  6212816.142806135
knn RMSE:  10829302.422037913
knn MAEP:  16.89220096792761
knn RMSEP:  29.44409566462811
fitted arima: (2, 1, 0)x(1, 1, 0, 52)
sarima MAPE:  27.190365277759042
sarima MAE:  14888405.507967612
sarima RMSE:  20073673.419932704
sarima MAEP:  40.480505482815644
sarima RMSEP:  54.578876596353666
Predict with: data: (148,), timesteps: 36, k: 4, l: 18
knn MAPE:  13.327759689624452
knn MAE:  5310464.4873076435
knn RMSE:  9338916.622403592
knn MAEP:  14.141082745801162
knn RMSEP:  24.86833176818804
fitted arima: (2, 1, 0)x(1, 1, 0, 52)
sarima MAPE:  22.981775938978245
sarima MAE:  13199533.084399715
sarima RMSE:  19533232.72966508
sarima MAEP:  35.148656016541615
sarima RMSEP:  52.014482157515914
